VLA_modelsim/transcript
vcom
vlog -reportprogress 300 -work work /home/quangphan2903/TUNI/Cadence/verilog/VLA/VLA_modelsim/fifo/fifo.v
# Model Technology ModelSim - Intel FPGA Edition vlog 2020.1_3 Compiler 2020.04 Apr 27 2020
# Start time: 01:25:14 on Dec 27,2020
# vlog -reportprogress 300 -work work /home/quangphan2903/TUNI/Cadence/verilog/VLA/VLA_modelsim/fifo/fifo.v 
# -- Compiling module fifo
# 
# Top level modules:
# 	fifo
# End time: 01:25:14 on Dec 27,2020, Elapsed time: 0:00:00
# Errors: 0, Warnings: 0
vlog -reportprogress 300 -work work /home/quangphan2903/TUNI/Cadence/verilog/VLA/VLA_modelsim/fifo/fifo_test.v
# Model Technology ModelSim - Intel FPGA Edition vlog 2020.1_3 Compiler 2020.04 Apr 27 2020
# Start time: 01:25:14 on Dec 27,2020
# vlog -reportprogress 300 -work work /home/quangphan2903/TUNI/Cadence/verilog/VLA/VLA_modelsim/fifo/fifo_test.v 
# -- Compiling module fifo_test
# 
# Top level modules:
# 	fifo_test
# End time: 01:25:14 on Dec 27,2020, Elapsed time: 0:00:00
# Errors: 0, Warnings: 0
vsim work.fifo_test
# vsim work.fifo_test 
# Start time: 01:25:16 on Dec 27,2020
# Loading work.fifo_test
# Loading work.fifo
add wave -position insertpoint sim:/fifo_test/fifo_inst/*
run -all
#                    0 0 0 0 0 11111111 x xxxxxxxxx
#                   10 1 0 0 0 11111111 x xxxxxxxxx
#                   20 0 1 0 0 11111111 0 1xxxxxxxx
#                   30 1 1 0 0 11111111 0 1xxxxxxxx
#                   40 0 0 0 0 11111111 0 1xxxxxxxx
#                   50 1 0 0 0 11111111 0 1xxxxxxxx
#                   60 0 0 1 0 11111111 0 1xxxxxxxx
#                   70 1 0 1 0 11111111 0 0xxxxxxxx
#                   80 0 0 0 1 11111111 0 0xxxxxxxx
#                   90 1 0 0 1 11111111 0 111111111
#                  100 0 0 1 0 11111111 0 111111111
#                  110 1 0 1 0 11111111 0 011111111
#                  120 0 0 1 0 11111110 0 011111111
#                  130 1 0 1 0 11111110 0 011111111
#                  140 0 0 1 0 11111101 0 011111111
#                  150 1 0 1 0 11111101 0 011111111
#                  160 0 0 1 0 11111100 0 011111111
#                  170 1 0 1 0 11111100 0 011111111
#                  180 0 0 1 0 11111011 0 011111111
#                  190 1 0 1 0 11111011 0 011111111
#                  200 0 0 1 0 11111010 0 011111111
#                  210 1 0 1 0 11111010 0 011111111
#                  220 0 0 1 0 11111001 0 011111111
#                  230 1 0 1 0 11111001 0 011111111
#                  240 0 0 1 0 11111000 0 011111111
#                  250 1 0 1 0 11111000 0 011111111
#                  260 0 0 1 0 11110111 0 011111111
#                  270 1 0 1 0 11110111 0 011111111
#                  280 0 0 1 0 11110110 0 011111111
#                  290 1 0 1 0 11110110 0 011111111
#                  300 0 0 1 0 11110101 0 011111111
#                  310 1 0 1 0 11110101 0 011111111
#                  320 0 0 1 0 11110100 0 011111111
#                  330 1 0 1 0 11110100 0 011111111
#                  340 0 0 1 0 11110011 0 011111111
#                  350 1 0 1 0 11110011 0 011111111
#                  360 0 0 1 0 11110010 0 011111111
#                  370 1 0 1 0 11110010 0 011111111
#                  380 0 0 1 0 11110001 0 011111111
#                  390 1 0 1 0 11110001 0 011111111
#                  400 0 0 1 0 11110000 0 011111111
#                  410 1 0 1 0 11110000 0 011111111
#                  420 0 0 1 0 11101111 0 011111111
#                  430 1 0 1 0 11101111 0 011111111
#                  440 0 0 1 0 11101110 0 011111111
#                  450 1 0 1 0 11101110 0 011111111
#                  460 0 0 1 0 11101101 0 011111111
#                  470 1 0 1 0 11101101 0 011111111
#                  480 0 0 1 0 11101100 0 011111111
#                  490 1 0 1 0 11101100 0 011111111
#                  500 0 0 1 0 11101011 0 011111111
#                  510 1 0 1 0 11101011 0 011111111
#                  520 0 0 1 0 11101010 0 011111111
#                  530 1 0 1 0 11101010 0 011111111
#                  540 0 0 1 0 11101001 0 011111111
#                  550 1 0 1 0 11101001 0 011111111
#                  560 0 0 1 0 11101000 0 011111111
#                  570 1 0 1 0 11101000 0 011111111
#                  580 0 0 1 0 11100111 0 011111111
#                  590 1 0 1 0 11100111 0 011111111
#                  600 0 0 1 0 11100110 0 011111111
#                  610 1 0 1 0 11100110 0 011111111
#                  620 0 0 1 0 11100101 0 011111111
#                  630 1 0 1 0 11100101 0 011111111
#                  640 0 0 1 0 11100100 0 011111111
#                  650 1 0 1 0 11100100 0 011111111
#                  660 0 0 1 0 11100011 0 011111111
#                  670 1 0 1 0 11100011 0 011111111
#                  680 0 0 1 0 11100010 0 011111111
#                  690 1 0 1 0 11100010 0 011111111
#                  700 0 0 1 0 11100001 0 011111111
#                  710 1 0 1 0 11100001 0 011111111
#                  720 0 0 1 0 11100000 0 011111111
#                  730 1 0 1 0 11100000 1 011111111
#                  740 0 0 0 1 11100000 1 011111111
#                  750 1 0 0 1 11100000 0 011111111
#                  760 0 0 0 1 11100000 0 011111111
#                  770 1 0 0 1 11100000 0 011111110
#                  780 0 0 0 1 11100000 0 011111110
#                  790 1 0 0 1 11100000 0 011111101
#                  800 0 0 0 1 11100000 0 011111101
#                  810 1 0 0 1 11100000 0 011111100
#                  820 0 0 0 1 11100000 0 011111100
#                  830 1 0 0 1 11100000 0 011111011
#                  840 0 0 0 1 11100000 0 011111011
#                  850 1 0 0 1 11100000 0 011111010
#                  860 0 0 0 1 11100000 0 011111010
#                  870 1 0 0 1 11100000 0 011111001
#                  880 0 0 0 1 11100000 0 011111001
#                  890 1 0 0 1 11100000 0 011111000
#                  900 0 0 0 1 11100000 0 011111000
#                  910 1 0 0 1 11100000 0 011110111
#                  920 0 0 0 1 11100000 0 011110111
#                  930 1 0 0 1 11100000 0 011110110
#                  940 0 0 0 1 11100000 0 011110110
#                  950 1 0 0 1 11100000 0 011110101
#                  960 0 0 0 1 11100000 0 011110101
#                  970 1 0 0 1 11100000 0 011110100
#                  980 0 0 0 1 11100000 0 011110100
#                  990 1 0 0 1 11100000 0 011110011
#                 1000 0 0 0 1 11100000 0 011110011
#                 1010 1 0 0 1 11100000 0 011110010
#                 1020 0 0 0 1 11100000 0 011110010
#                 1030 1 0 0 1 11100000 0 011110001
#                 1040 0 0 0 1 11100000 0 011110001
#                 1050 1 0 0 1 11100000 0 011110000
#                 1060 0 0 0 1 11100000 0 011110000
#                 1070 1 0 0 1 11100000 0 011101111
#                 1080 0 0 0 1 11100000 0 011101111
#                 1090 1 0 0 1 11100000 0 011101110
#                 1100 0 0 0 1 11100000 0 011101110
#                 1110 1 0 0 1 11100000 0 011101101
#                 1120 0 0 0 1 11100000 0 011101101
#                 1130 1 0 0 1 11100000 0 011101100
#                 1140 0 0 0 1 11100000 0 011101100
#                 1150 1 0 0 1 11100000 0 011101011
#                 1160 0 0 0 1 11100000 0 011101011
#                 1170 1 0 0 1 11100000 0 011101010
#                 1180 0 0 0 1 11100000 0 011101010
#                 1190 1 0 0 1 11100000 0 011101001
#                 1200 0 0 0 1 11100000 0 011101001
#                 1210 1 0 0 1 11100000 0 011101000
#                 1220 0 0 0 1 11100000 0 011101000
#                 1230 1 0 0 1 11100000 0 011100111
#                 1240 0 0 0 1 11100000 0 011100111
#                 1250 1 0 0 1 11100000 0 011100110
#                 1260 0 0 0 1 11100000 0 011100110
#                 1270 1 0 0 1 11100000 0 011100101
#                 1280 0 0 0 1 11100000 0 011100101
#                 1290 1 0 0 1 11100000 0 011100100
#                 1300 0 0 0 1 11100000 0 011100100
#                 1310 1 0 0 1 11100000 0 011100011
#                 1320 0 0 0 1 11100000 0 011100011
#                 1330 1 0 0 1 11100000 0 011100010
#                 1340 0 0 0 1 11100000 0 011100010
#                 1350 1 0 0 1 11100000 0 011100001
# ** Note: $stop    : /home/quangphan2903/TUNI/Cadence/verilog/VLA/VLA_modelsim/fifo/fifo_test.v(73)
#    Time: 1360 ps  Iteration: 1  Instance: /fifo_test
# Break in NamedBeginStat stimulus at /home/quangphan2903/TUNI/Cadence/verilog/VLA/VLA_modelsim/fifo/fifo_test.v line 73
quit -sim
vcom
quit -sim
# End time: 01:26:34 on Dec 27,2020, Elapsed time: 0:01:18
# Errors: 0, Warnings: 0
vlog -reportprogress 300 -work work /home/quangphan2903/TUNI/Cadence/verilog/VLA/VLA_modelsim/fifo/fifo_test.v
# Model Technology ModelSim - Intel FPGA Edition vlog 2020.1_3 Compiler 2020.04 Apr 27 2020
# Start time: 01:26:37 on Dec 27,2020
# vlog -reportprogress 300 -work work /home/quangphan2903/TUNI/Cadence/verilog/VLA/VLA_modelsim/fifo/fifo_test.v 
# -- Compiling module fifo_test
# 
# Top level modules:
# 	fifo_test
# End time: 01:26:37 on Dec 27,2020, Elapsed time: 0:00:00
# Errors: 0, Warnings: 0
vsim work.fifo_test
# vsim work.fifo_test 
# Start time: 01:26:40 on Dec 27,2020
# Loading work.fifo_test
# Loading work.fifo
add wave -position insertpoint sim:/fifo_test/fifo_inst/*
run -all
#                    0 0 0 0 0 11111111 x xxxxxxxxx
#                   10 1 0 0 0 11111111 x xxxxxxxxx
#                   20 0 1 0 0 11111111 0 1xxxxxxxx
#                   30 1 1 0 0 11111111 0 1xxxxxxxx
#                   40 0 0 0 0 11111111 0 1xxxxxxxx
#                   50 1 0 0 0 11111111 0 1xxxxxxxx
#                   60 0 0 1 0 11111111 0 1xxxxxxxx
#                   70 1 0 1 0 11111111 0 0xxxxxxxx
#                   80 0 0 0 1 11111111 0 0xxxxxxxx
#                   90 1 0 0 1 11111111 0 111111111
#                  100 0 0 1 0 11111111 0 111111111
#                  110 1 0 1 0 11111111 0 011111111
#                  120 0 0 1 0 11111110 0 011111111
#                  130 1 0 1 0 11111110 0 011111111
#                  140 0 0 1 0 11111101 0 011111111
#                  150 1 0 1 0 11111101 0 011111111
#                  160 0 0 1 0 11111100 0 011111111
#                  170 1 0 1 0 11111100 0 011111111
#                  180 0 0 1 0 11111011 0 011111111
#                  190 1 0 1 0 11111011 0 011111111
#                  200 0 0 1 0 11111010 0 011111111
#                  210 1 0 1 0 11111010 0 011111111
#                  220 0 0 1 0 11111001 0 011111111
#                  230 1 0 1 0 11111001 0 011111111
#                  240 0 0 1 0 11111000 0 011111111
#                  250 1 0 1 0 11111000 0 011111111
#                  260 0 0 1 0 11110111 0 011111111
#                  270 1 0 1 0 11110111 0 011111111
#                  280 0 0 1 0 11110110 0 011111111
#                  290 1 0 1 0 11110110 0 011111111
#                  300 0 0 1 0 11110101 0 011111111
#                  310 1 0 1 0 11110101 0 011111111
#                  320 0 0 1 0 11110100 0 011111111
#                  330 1 0 1 0 11110100 0 011111111
#                  340 0 0 1 0 11110011 0 011111111
#                  350 1 0 1 0 11110011 0 011111111
#                  360 0 0 1 0 11110010 0 011111111
#                  370 1 0 1 0 11110010 0 011111111
#                  380 0 0 1 0 11110001 0 011111111
#                  390 1 0 1 0 11110001 0 011111111
#                  400 0 0 1 0 11110000 0 011111111
#                  410 1 0 1 0 11110000 0 011111111
#                  420 0 0 1 0 11101111 0 011111111
#                  430 1 0 1 0 11101111 0 011111111
#                  440 0 0 1 0 11101110 0 011111111
#                  450 1 0 1 0 11101110 0 011111111
#                  460 0 0 1 0 11101101 0 011111111
#                  470 1 0 1 0 11101101 0 011111111
#                  480 0 0 1 0 11101100 0 011111111
#                  490 1 0 1 0 11101100 0 011111111
#                  500 0 0 1 0 11101011 0 011111111
#                  510 1 0 1 0 11101011 0 011111111
#                  520 0 0 1 0 11101010 0 011111111
#                  530 1 0 1 0 11101010 0 011111111
#                  540 0 0 1 0 11101001 0 011111111
#                  550 1 0 1 0 11101001 0 011111111
#                  560 0 0 1 0 11101000 0 011111111
#                  570 1 0 1 0 11101000 0 011111111
#                  580 0 0 1 0 11100111 0 011111111
#                  590 1 0 1 0 11100111 0 011111111
#                  600 0 0 1 0 11100110 0 011111111
#                  610 1 0 1 0 11100110 0 011111111
#                  620 0 0 1 0 11100101 0 011111111
#                  630 1 0 1 0 11100101 0 011111111
#                  640 0 0 1 0 11100100 0 011111111
#                  650 1 0 1 0 11100100 0 011111111
#                  660 0 0 1 0 11100011 0 011111111
#                  670 1 0 1 0 11100011 0 011111111
#                  680 0 0 1 0 11100010 0 011111111
#                  690 1 0 1 0 11100010 0 011111111
#                  700 0 0 1 0 11100001 0 011111111
#                  710 1 0 1 0 11100001 0 011111111
#                  720 0 0 1 0 11100000 0 011111111
#                  730 1 0 1 0 11100000 1 011111111
#                  740 0 0 0 1 11100000 1 011111111
#                  750 1 0 0 1 11100000 0 011111111
#                  760 0 0 0 1 11100000 0 011111111
#                  770 1 0 0 1 11100000 0 011111110
#                  780 0 0 0 1 11100000 0 011111110
#                  790 1 0 0 1 11100000 0 011111101
#                  800 0 0 0 1 11100000 0 011111101
#                  810 1 0 0 1 11100000 0 011111100
#                  820 0 0 0 1 11100000 0 011111100
#                  830 1 0 0 1 11100000 0 011111011
#                  840 0 0 0 1 11100000 0 011111011
#                  850 1 0 0 1 11100000 0 011111010
#                  860 0 0 0 1 11100000 0 011111010
#                  870 1 0 0 1 11100000 0 011111001
#                  880 0 0 0 1 11100000 0 011111001
#                  890 1 0 0 1 11100000 0 011111000
#                  900 0 0 0 1 11100000 0 011111000
#                  910 1 0 0 1 11100000 0 011110111
#                  920 0 0 0 1 11100000 0 011110111
#                  930 1 0 0 1 11100000 0 011110110
#                  940 0 0 0 1 11100000 0 011110110
#                  950 1 0 0 1 11100000 0 011110101
#                  960 0 0 0 1 11100000 0 011110101
#                  970 1 0 0 1 11100000 0 011110100
#                  980 0 0 0 1 11100000 0 011110100
#                  990 1 0 0 1 11100000 0 011110011
#                 1000 0 0 0 1 11100000 0 011110011
#                 1010 1 0 0 1 11100000 0 011110010
#                 1020 0 0 0 1 11100000 0 011110010
#                 1030 1 0 0 1 11100000 0 011110001
#                 1040 0 0 0 1 11100000 0 011110001
#                 1050 1 0 0 1 11100000 0 011110000
#                 1060 0 0 0 1 11100000 0 011110000
#                 1070 1 0 0 1 11100000 0 011101111
#                 1080 0 0 0 1 11100000 0 011101111
#                 1090 1 0 0 1 11100000 0 011101110
#                 1100 0 0 0 1 11100000 0 011101110
#                 1110 1 0 0 1 11100000 0 011101101
#                 1120 0 0 0 1 11100000 0 011101101
#                 1130 1 0 0 1 11100000 0 011101100
#                 1140 0 0 0 1 11100000 0 011101100
#                 1150 1 0 0 1 11100000 0 011101011
#                 1160 0 0 0 1 11100000 0 011101011
#                 1170 1 0 0 1 11100000 0 011101010
#                 1180 0 0 0 1 11100000 0 011101010
#                 1190 1 0 0 1 11100000 0 011101001
#                 1200 0 0 0 1 11100000 0 011101001
#                 1210 1 0 0 1 11100000 0 011101000
#                 1220 0 0 0 1 11100000 0 011101000
#                 1230 1 0 0 1 11100000 0 011100111
#                 1240 0 0 0 1 11100000 0 011100111
#                 1250 1 0 0 1 11100000 0 011100110
#                 1260 0 0 0 1 11100000 0 011100110
#                 1270 1 0 0 1 11100000 0 011100101
#                 1280 0 0 0 1 11100000 0 011100101
#                 1290 1 0 0 1 11100000 0 011100100
#                 1300 0 0 0 1 11100000 0 011100100
#                 1310 1 0 0 1 11100000 0 011100011
#                 1320 0 0 0 1 11100000 0 011100011
#                 1330 1 0 0 1 11100000 0 011100010
#                 1340 0 0 0 1 11100000 0 011100010
#                 1350 1 0 0 1 11100000 0 011100001
#                 1360 0 0 0 1 11100000 0 011100001
#                 1370 1 0 0 1 11100000 0 111100000
#                 1380 0 0 0 1 11100000 0 111100000
#                 1390 1 0 0 1 11100000 0 111100000
# ** Note: $stop    : /home/quangphan2903/TUNI/Cadence/verilog/VLA/VLA_modelsim/fifo/fifo_test.v(73)
#    Time: 1400 ps  Iteration: 1  Instance: /fifo_test
# Break in NamedBeginStat stimulus at /home/quangphan2903/TUNI/Cadence/verilog/VLA/VLA_modelsim/fifo/fifo_test.v line 73
quit -sim
quit -sim
# End time: 01:28:16 on Dec 27,2020, Elapsed time: 0:01:36
# Errors: 0, Warnings: 0
vcom
quit -sim
vlog -reportprogress 300 -work work /home/quangphan2903/TUNI/Cadence/verilog/VLA/VLA_modelsim/fifo/fifo_test.v
# Model Technology ModelSim - Intel FPGA Edition vlog 2020.1_3 Compiler 2020.04 Apr 27 2020
# Start time: 01:28:18 on Dec 27,2020
# vlog -reportprogress 300 -work work /home/quangphan2903/TUNI/Cadence/verilog/VLA/VLA_modelsim/fifo/fifo_test.v 
# -- Compiling module fifo_test
# 
# Top level modules:
# 	fifo_test
# End time: 01:28:18 on Dec 27,2020, Elapsed time: 0:00:00
# Errors: 0, Warnings: 0
vsim work.fifo_test
# vsim work.fifo_test 
# Start time: 01:28:21 on Dec 27,2020
# Loading work.fifo_test
# Loading work.fifo
add wave -position insertpoint sim:/fifo_test/fifo_inst/*
run -all
#                    0 0 0 0 0 11111111 x xxxxxxxxx
#                   10 1 0 0 0 11111111 x xxxxxxxxx
#                   20 0 1 0 0 11111111 0 1xxxxxxxx
#                   30 1 1 0 0 11111111 0 1xxxxxxxx
#                   40 0 0 0 0 11111111 0 1xxxxxxxx
#                   50 1 0 0 0 11111111 0 1xxxxxxxx
#                   60 0 0 1 0 11111111 0 1xxxxxxxx
#                   70 1 0 1 0 11111111 0 0xxxxxxxx
#                   80 0 0 0 1 11111111 0 0xxxxxxxx
#                   90 1 0 0 1 11111111 0 111111111
#                  100 0 0 1 0 11111111 0 111111111
#                  110 1 0 1 0 11111111 0 011111111
#                  120 0 0 1 0 11111110 0 011111111
#                  130 1 0 1 0 11111110 0 011111111
#                  140 0 0 1 0 11111101 0 011111111
#                  150 1 0 1 0 11111101 0 011111111
#                  160 0 0 1 0 11111100 0 011111111
#                  170 1 0 1 0 11111100 0 011111111
#                  180 0 0 1 0 11111011 0 011111111
#                  190 1 0 1 0 11111011 0 011111111
#                  200 0 0 1 0 11111010 0 011111111
#                  210 1 0 1 0 11111010 0 011111111
#                  220 0 0 1 0 11111001 0 011111111
#                  230 1 0 1 0 11111001 0 011111111
#                  240 0 0 1 0 11111000 0 011111111
#                  250 1 0 1 0 11111000 0 011111111
#                  260 0 0 1 0 11110111 0 011111111
#                  270 1 0 1 0 11110111 0 011111111
#                  280 0 0 1 0 11110110 0 011111111
#                  290 1 0 1 0 11110110 0 011111111
#                  300 0 0 1 0 11110101 0 011111111
#                  310 1 0 1 0 11110101 0 011111111
#                  320 0 0 1 0 11110100 0 011111111
#                  330 1 0 1 0 11110100 0 011111111
#                  340 0 0 1 0 11110011 0 011111111
#                  350 1 0 1 0 11110011 0 011111111
#                  360 0 0 1 0 11110010 0 011111111
#                  370 1 0 1 0 11110010 0 011111111
#                  380 0 0 1 0 11110001 0 011111111
#                  390 1 0 1 0 11110001 0 011111111
#                  400 0 0 1 0 11110000 0 011111111
#                  410 1 0 1 0 11110000 0 011111111
#                  420 0 0 1 0 11101111 0 011111111
#                  430 1 0 1 0 11101111 0 011111111
#                  440 0 0 1 0 11101110 0 011111111
#                  450 1 0 1 0 11101110 0 011111111
#                  460 0 0 1 0 11101101 0 011111111
#                  470 1 0 1 0 11101101 0 011111111
#                  480 0 0 1 0 11101100 0 011111111
#                  490 1 0 1 0 11101100 0 011111111
#                  500 0 0 1 0 11101011 0 011111111
#                  510 1 0 1 0 11101011 0 011111111
#                  520 0 0 1 0 11101010 0 011111111
#                  530 1 0 1 0 11101010 0 011111111
#                  540 0 0 1 0 11101001 0 011111111
#                  550 1 0 1 0 11101001 0 011111111
#                  560 0 0 1 0 11101000 0 011111111
#                  570 1 0 1 0 11101000 0 011111111
#                  580 0 0 1 0 11100111 0 011111111
#                  590 1 0 1 0 11100111 0 011111111
#                  600 0 0 1 0 11100110 0 011111111
#                  610 1 0 1 0 11100110 0 011111111
#                  620 0 0 1 0 11100101 0 011111111
#                  630 1 0 1 0 11100101 0 011111111
#                  640 0 0 1 0 11100100 0 011111111
#                  650 1 0 1 0 11100100 0 011111111
#                  660 0 0 1 0 11100011 0 011111111
#                  670 1 0 1 0 11100011 0 011111111
#                  680 0 0 1 0 11100010 0 011111111
#                  690 1 0 1 0 11100010 0 011111111
#                  700 0 0 1 0 11100001 0 011111111
#                  710 1 0 1 0 11100001 0 011111111
#                  720 0 0 1 0 11100000 0 011111111
#                  730 1 0 1 0 11100000 1 011111111
#                  740 0 0 0 1 11100000 1 011111111
#                  750 1 0 0 1 11100000 0 011111111
#                  760 0 0 0 1 11100000 0 011111111
#                  770 1 0 0 1 11100000 0 011111110
#                  780 0 0 0 1 11100000 0 011111110
#                  790 1 0 0 1 11100000 0 011111101
#                  800 0 0 0 1 11100000 0 011111101
#                  810 1 0 0 1 11100000 0 011111100
#                  820 0 0 0 1 11100000 0 011111100
#                  830 1 0 0 1 11100000 0 011111011
#                  840 0 0 0 1 11100000 0 011111011
#                  850 1 0 0 1 11100000 0 011111010
#                  860 0 0 0 1 11100000 0 011111010
#                  870 1 0 0 1 11100000 0 011111001
#                  880 0 0 0 1 11100000 0 011111001
#                  890 1 0 0 1 11100000 0 011111000
#                  900 0 0 0 1 11100000 0 011111000
#                  910 1 0 0 1 11100000 0 011110111
#                  920 0 0 0 1 11100000 0 011110111
#                  930 1 0 0 1 11100000 0 011110110
#                  940 0 0 0 1 11100000 0 011110110
#                  950 1 0 0 1 11100000 0 011110101
#                  960 0 0 0 1 11100000 0 011110101
#                  970 1 0 0 1 11100000 0 011110100
#                  980 0 0 0 1 11100000 0 011110100
#                  990 1 0 0 1 11100000 0 011110011
#                 1000 0 0 0 1 11100000 0 011110011
#                 1010 1 0 0 1 11100000 0 011110010
#                 1020 0 0 0 1 11100000 0 011110010
#                 1030 1 0 0 1 11100000 0 011110001
#                 1040 0 0 0 1 11100000 0 011110001
#                 1050 1 0 0 1 11100000 0 011110000
#                 1060 0 0 0 1 11100000 0 011110000
#                 1070 1 0 0 1 11100000 0 011101111
#                 1080 0 0 0 1 11100000 0 011101111
#                 1090 1 0 0 1 11100000 0 011101110
#                 1100 0 0 0 1 11100000 0 011101110
#                 1110 1 0 0 1 11100000 0 011101101
#                 1120 0 0 0 1 11100000 0 011101101
#                 1130 1 0 0 1 11100000 0 011101100
#                 1140 0 0 0 1 11100000 0 011101100
#                 1150 1 0 0 1 11100000 0 011101011
#                 1160 0 0 0 1 11100000 0 011101011
#                 1170 1 0 0 1 11100000 0 011101010
#                 1180 0 0 0 1 11100000 0 011101010
#                 1190 1 0 0 1 11100000 0 011101001
#                 1200 0 0 0 1 11100000 0 011101001
#                 1210 1 0 0 1 11100000 0 011101000
#                 1220 0 0 0 1 11100000 0 011101000
#                 1230 1 0 0 1 11100000 0 011100111
#                 1240 0 0 0 1 11100000 0 011100111
#                 1250 1 0 0 1 11100000 0 011100110
#                 1260 0 0 0 1 11100000 0 011100110
#                 1270 1 0 0 1 11100000 0 011100101
#                 1280 0 0 0 1 11100000 0 011100101
#                 1290 1 0 0 1 11100000 0 011100100
#                 1300 0 0 0 1 11100000 0 011100100
#                 1310 1 0 0 1 11100000 0 011100011
#                 1320 0 0 0 1 11100000 0 011100011
#                 1330 1 0 0 1 11100000 0 011100010
#                 1340 0 0 0 1 11100000 0 011100010
#                 1350 1 0 0 1 11100000 0 011100001
#                 1360 0 0 0 1 11100000 0 011100001
#                 1370 1 0 0 1 11100000 0 111100000
# ** Note: $stop    : /home/quangphan2903/TUNI/Cadence/verilog/VLA/VLA_modelsim/fifo/fifo_test.v(73)
#    Time: 1380 ps  Iteration: 1  Instance: /fifo_test
# Break in NamedBeginStat stimulus at /home/quangphan2903/TUNI/Cadence/verilog/VLA/VLA_modelsim/fifo/fifo_test.v line 73
# End time: 01:29:09 on Dec 27,2020, Elapsed time: 0:00:48
# Errors: 0, Warnings: 0
